{
  "$schema": "../../node_modules/nx/schemas/project-schema.json",
  "projectType": "application",
  "sourceRoot": "apps/dashboard/src",
  "targets": {
    "build": {
      "executor": "@jscutlery/semver:version",
      "options": {
        "baseBranch": "main",
        "preset": "conventional",
        "tagPrefix": "${projectName}@"
      },
      "configurations": {
        "production": {
          "mode": "production",
          "dest": "dist/apps/dashboard/stable/",
          "filenameHashing": true,
          "productionSourceMap": false,
          "css": {
            "extract": false,
            "sourceMap": false
          }
        }
      }
    },
    "serve": {
      "executor": "@nx-plus/vue:dev-server",
      "options": {
        "browserTarget": "dashboard:build"
      },
      "configurations": {
        "production": {
          "browserTarget": "dashboard:build:production"
        }
      }
    },
    "lint": {
      "executor": "@nrwl/linter:eslint",
      "outputs": ["{options.outputFile}"],
      "options": {
        "lintFilePatterns": ["apps/dashboard/**/*.{ts,tsx,vue}"]
      }
    },
    "test": {
      "executor": "@nrwl/jest:jest",
      "outputs": ["coverage/apps/dashboard"],
      "options": {
        "jestConfig": "apps/dashboard/jest.config.ts",
        "passWithNoTests": true
      }
    }
  },
  "tags": []
}
